{
  "products": [
    {
      "id": 1,
      "title": "Fall limited Vans Authentic",
      "desc": "The Vans Authentic shoe are the shoes that have stayed true to its roots and has not changed since its 1966 origin. Now it has become a classic for any casual occasion. The Vans Authentic trainers are the first lace-up skate shoe featuring the Vans waffle bottom construction, original vulcanized sole and canvas uppers in a multitude of colors and styles. Imported. Get your Vans Authentic trainers here at Pro-Direct Select.",
      "price": "150",
      "discount": "50",
      "act_price": "250",
      "category": "women",
      "sizes": {
        "eu": [
          { "34": 10 },
          { "35": 10 },
          { "36": 10 },
          { "37": 20 },
          { "38": 20 },
          { "39": 20 },
          { "40": 20 },
          { "41": 4 },
          { "42": 3 },
          { "43": 1 },
          { "44": 1 },
          { "45": 1 }

        ]
      },
      "images": [
        "https://images.prodirectsport.com/ProductImages/Main/42856_Main_Thumb_0562821.jpg?impolicy=thumb&imwidth=1440",
        "https://images.prodirectsport.com/ProductImages/Gallery_1/42856_Gallery_1_0562824.jpg?impolicy=thumb&imwidth=1440",
        "https://images.prodirectsport.com/ProductImages/Gallery_2/42856_Gallery_2_0562852.jpg?impolicy=thumb&imwidth=1440",
        "https://images.prodirectsport.com/ProductImages/Gallery_3/42856_Gallery_3_0562853.jpg?impolicy=thumb&imwidth=1440"
      ]
    },
    {
      "id": 2,
      "title": "Air Jordan 1 Mid",
      "desc": "The Men's Air Jordan 1 Mid Shoe is inspired by the original AJ 1, the clean yet smart design show off this colourway in elegant style.",
      "price": "150",
      "discount": "50",
      "act_price": "250",
      "category": "men",
      "sizes": {
        
        "eu": [
          { "34": 10 },
          { "35": 10 },
          { "36": 10 },
          { "37": 20 },
          { "38": 20 },
          { "39": 20 },
          { "40": 20 },
          { "41": 4 },
          { "42": 3 },
          { "43": 1 },
          { "44": 1 },
          { "45": 1 }

        ]
      },
      "images": [
        "https://images.prodirectsport.com/ProductImages/Creative_1/200938_Main_1701067.jpg?impolicy=thumb&imwidth=1440",
        "https://images.prodirectsport.com/ProductImages/Main/200938_Main_Thumb_0472067.jpg?impolicy=thumb&imwidth=1440",
        "https://images.prodirectsport.com/ProductImages/Gallery_1/200938_Gallery_1_0472068.jpg?impolicy=thumb&imwidth=1440",
        "https://images.prodirectsport.com/ProductImages/Gallery_2/200938_Gallery_2_0472069.jpg?impolicy=thumb&imwidth=1440"
      ]
    }
  ]
}
